module testEmagGo

go 1.15

require (
	github.com/alecthomas/template v0.0.0-20190718012654-fb15b899a751
	github.com/go-openapi/jsonreference v0.19.6 // indirect
	github.com/go-openapi/spec v0.20.3 // indirect
	github.com/go-openapi/swag v0.19.15 // indirect
	github.com/mailru/easyjson v0.7.7 // indirect
	github.com/swaggo/http-swagger v1.0.0
	github.com/swaggo/swag v1.7.0
	golang.org/x/net v0.0.0-20210716203947-853a461950ff // indirect
	golang.org/x/sys v0.0.0-20210630005230-0f9fa26af87c // indirect
	golang.org/x/tools v0.1.5 // indirect
)
